…
Convertim el conjunt de dades `adult` que és del tipus `data.frame` a `tibble`:


```r
# Convertim el dataframe a tibble
as_tibble(adult)
```

```
## # A tibble: 32,560 x 15
##     `39` `State-gov` `77516` Bachelors  `13` `Never-married` `Adm-clerical`
##    <int> <chr>         <int> <chr>     <int> <chr>           <chr>         
##  1    50 Self-emp-n~   83311 Bachelors    13 Married-civ-sp~ Exec-manageri~
##  2    38 Private      215646 HS-grad       9 Divorced        Handlers-clea~
##  3    53 Private      234721 11th          7 Married-civ-sp~ Handlers-clea~
##  4    28 Private      338409 Bachelors    13 Married-civ-sp~ Prof-specialty
##  5    37 Private      284582 Masters      14 Married-civ-sp~ Exec-manageri~
##  6    49 Private      160187 9th           5 Married-spouse~ Other-service 
##  7    52 Self-emp-n~  209642 HS-grad       9 Married-civ-sp~ Exec-manageri~
##  8    31 Private       45781 Masters      14 Never-married   Prof-specialty
##  9    42 Private      159449 Bachelors    13 Married-civ-sp~ Exec-manageri~
## 10    37 Private      280464 Some-col~    10 Married-civ-sp~ Exec-manageri~
## # ... with 32,550 more rows, and 8 more variables: `Not-in-family` <chr>,
## #   White <chr>, Male <chr>, `2174` <int>, `0` <int>, `40` <int>,
## #   `United-States` <chr>, `<=50K` <chr>
```
…
